^C:\USERS\ADMIN\DOCUMENTS\DEV\LEARN\LEARN_C\PROJET 7\PGCD\DEBUG\PCH.OBJ|C:\USERS\ADMIN\DOCUMENTS\DEV\LEARN\LEARN_C\PROJET 7\PGCD\DEBUG\PGCD.OBJ
C:\WINDOWS KITS\10\LIB\10.0.17134.0\UM\X86\KERNEL32.LIB
C:\WINDOWS KITS\10\LIB\10.0.17134.0\UM\X86\USER32.LIB
C:\WINDOWS KITS\10\LIB\10.0.17134.0\UM\X86\GDI32.LIB
C:\WINDOWS KITS\10\LIB\10.0.17134.0\UM\X86\WINSPOOL.LIB
C:\WINDOWS KITS\10\LIB\10.0.17134.0\UM\X86\COMDLG32.LIB
C:\WINDOWS KITS\10\LIB\10.0.17134.0\UM\X86\ADVAPI32.LIB
C:\WINDOWS KITS\10\LIB\10.0.17134.0\UM\X86\SHELL32.LIB
C:\WINDOWS KITS\10\LIB\10.0.17134.0\UM\X86\OLE32.LIB
C:\WINDOWS KITS\10\LIB\10.0.17134.0\UM\X86\OLEAUT32.LIB
C:\WINDOWS KITS\10\LIB\10.0.17134.0\UM\X86\UUID.LIB
C:\WINDOWS KITS\10\LIB\10.0.17134.0\UM\X86\ODBC32.LIB
C:\WINDOWS KITS\10\LIB\10.0.17134.0\UM\X86\ODBCCP32.LIB
C:\USERS\ADMIN\DOCUMENTS\DEV\LEARN\LEARN_C\PROJET 7\PGCD\DEBUG\PCH.OBJ
C:\USERS\ADMIN\DOCUMENTS\DEV\LEARN\LEARN_C\PROJET 7\PGCD\DEBUG\PGCD.OBJ
C:\WINDOWS\SYSTEM32\TZRES.DLL
C:\WINDOWS\GLOBALIZATION\SORTING\SORTDEFAULT.NLS
C:\VS\PROGRAM FILES\MICROSOFT VISUAL STUDIO\2017\COMMUNITY\VC\TOOLS\MSVC\14.15.26726\LIB\X86\MSVCRTD.LIB
C:\VS\PROGRAM FILES\MICROSOFT VISUAL STUDIO\2017\COMMUNITY\VC\TOOLS\MSVC\14.15.26726\LIB\X86\OLDNAMES.LIB
C:\VS\PROGRAM FILES\MICROSOFT VISUAL STUDIO\2017\COMMUNITY\VC\TOOLS\MSVC\14.15.26726\LIB\X86\MSVCPRTD.LIB
C:\VS\PROGRAM FILES\MICROSOFT VISUAL STUDIO\2017\COMMUNITY\VC\TOOLS\MSVC\14.15.26726\LIB\X86\VCRUNTIMED.LIB
C:\WINDOWS KITS\10\LIB\10.0.17134.0\UCRT\X86\UCRTD.LIB
