^C:\USERS\ADMIN\DOCUMENTS\DEV\LEARN\LEARN_C\PROJET 17\PALYNDROME\DEBUG\PALYNDROME.OBJ|C:\USERS\ADMIN\DOCUMENTS\DEV\LEARN\LEARN_C\PROJET 17\PALYNDROME\DEBUG\PCH.OBJ
C:\USERS\ADMIN\DOCUMENTS\DEV\LEARN\LEARN_C\PROJET 17\DEBUG\PALYNDROME.ILK
C:\USERS\ADMIN\DOCUMENTS\DEV\LEARN\LEARN_C\PROJET 17\DEBUG\PALYNDROME.EXE
C:\USERS\ADMIN\DOCUMENTS\DEV\LEARN\LEARN_C\PROJET 17\DEBUG\PALYNDROME.PDB
