^C:\USERS\ADMIN\DOCUMENTS\DEV\LEARN\LEARN_C\PROJET 18\STRING_TRIM\PCH.CPP
/c /ZI /JMC /nologo /W3 /WX- /diagnostics:classic /sdl /Od /Oy- /D WIN32 /D _DEBUG /D _CONSOLE /D _UNICODE /D UNICODE /Gm- /EHsc /RTC1 /MDd /GS /fp:precise /permissive- /Zc:wchar_t /Zc:forScope /Zc:inline /Yc"pch.h" /Fp"DEBUG\STRING_TRIM.PCH" /Fo"DEBUG\\" /Fd"DEBUG\VC141.PDB" /Gd /TP /analyze- /FC C:\USERS\ADMIN\DOCUMENTS\DEV\LEARN\LEARN_C\PROJET 18\STRING_TRIM\PCH.CPP
^C:\USERS\ADMIN\DOCUMENTS\DEV\LEARN\LEARN_C\PROJET 18\STRING_TRIM\STRING_TRIM.CPP
/c /ZI /JMC /nologo /W3 /WX- /diagnostics:classic /sdl /Od /Oy- /D WIN32 /D _DEBUG /D _CONSOLE /D _UNICODE /D UNICODE /Gm- /EHsc /RTC1 /MDd /GS /fp:precise /permissive- /Zc:wchar_t /Zc:forScope /Zc:inline /Yu"pch.h" /Fp"DEBUG\STRING_TRIM.PCH" /Fo"DEBUG\\" /Fd"DEBUG\VC141.PDB" /Gd /TP /analyze- /FC C:\USERS\ADMIN\DOCUMENTS\DEV\LEARN\LEARN_C\PROJET 18\STRING_TRIM\STRING_TRIM.CPP
