^C:\USERS\ADMIN\DOCUMENTS\DEV\LEARN\LEARN_C\PROJET 18\STRING_TRIM\PCH.CPP
C:\USERS\ADMIN\DOCUMENTS\DEV\LEARN\LEARN_C\PROJET 18\STRING_TRIM\DEBUG\STRING_TRIM.PCH
C:\USERS\ADMIN\DOCUMENTS\DEV\LEARN\LEARN_C\PROJET 18\STRING_TRIM\DEBUG\VC141.PDB
C:\USERS\ADMIN\DOCUMENTS\DEV\LEARN\LEARN_C\PROJET 18\STRING_TRIM\DEBUG\VC141.IDB
C:\USERS\ADMIN\DOCUMENTS\DEV\LEARN\LEARN_C\PROJET 18\STRING_TRIM\DEBUG\PCH.OBJ
^C:\USERS\ADMIN\DOCUMENTS\DEV\LEARN\LEARN_C\PROJET 18\STRING_TRIM\STRING_TRIM.CPP
C:\USERS\ADMIN\DOCUMENTS\DEV\LEARN\LEARN_C\PROJET 18\STRING_TRIM\DEBUG\VC141.PDB
C:\USERS\ADMIN\DOCUMENTS\DEV\LEARN\LEARN_C\PROJET 18\STRING_TRIM\DEBUG\VC141.IDB
C:\USERS\ADMIN\DOCUMENTS\DEV\LEARN\LEARN_C\PROJET 18\STRING_TRIM\DEBUG\STRING_TRIM.OBJ
