^C:\USERS\ADMIN\DOCUMENTS\DEV\LEARN\LEARN_C\PROJET 9\SECURISATION DES ENTRÉE\PCH.CPP
C:\USERS\ADMIN\DOCUMENTS\DEV\LEARN\LEARN_C\PROJET 9\SECURISATION DES ENTRéE\DEBUG\SECURISATION DES ENTRéE.PCH
C:\USERS\ADMIN\DOCUMENTS\DEV\LEARN\LEARN_C\PROJET 9\SECURISATION DES ENTRéE\DEBUG\VC141.PDB
C:\USERS\ADMIN\DOCUMENTS\DEV\LEARN\LEARN_C\PROJET 9\SECURISATION DES ENTRéE\DEBUG\VC141.IDB
C:\USERS\ADMIN\DOCUMENTS\DEV\LEARN\LEARN_C\PROJET 9\SECURISATION DES ENTRéE\DEBUG\PCH.OBJ
^C:\USERS\ADMIN\DOCUMENTS\DEV\LEARN\LEARN_C\PROJET 9\SECURISATION DES ENTRÉE\SECURISATION DES ENTRÉE.CPP
C:\USERS\ADMIN\DOCUMENTS\DEV\LEARN\LEARN_C\PROJET 9\SECURISATION DES ENTRéE\DEBUG\VC141.PDB
C:\USERS\ADMIN\DOCUMENTS\DEV\LEARN\LEARN_C\PROJET 9\SECURISATION DES ENTRéE\DEBUG\VC141.IDB
C:\USERS\ADMIN\DOCUMENTS\DEV\LEARN\LEARN_C\PROJET 9\SECURISATION DES ENTRéE\DEBUG\SECURISATION DES ENTRéE.OBJ
