^C:\USERS\ADMIN\DOCUMENTS\DEV\LEARN\LEARN_C\PROJET 2\PROJET2\DEBUG\PCH.OBJ|C:\USERS\ADMIN\DOCUMENTS\DEV\LEARN\LEARN_C\PROJET 2\PROJET2\DEBUG\PROJET2.OBJ
C:\USERS\ADMIN\DOCUMENTS\DEV\LEARN\LEARN_C\PROJET 2\DEBUG\PROJET2.EXE
C:\USERS\ADMIN\DOCUMENTS\DEV\LEARN\LEARN_C\PROJET 2\DEBUG\PROJET2.ILK
C:\USERS\ADMIN\DOCUMENTS\DEV\LEARN\LEARN_C\PROJET 2\DEBUG\PROJET2.PDB
