^C:\USERS\ADMIN\DOCUMENTS\DEV\LEARN\LEARN_C\PROJET 5\TABLE XOR\DEBUG\PCH.OBJ|C:\USERS\ADMIN\DOCUMENTS\DEV\LEARN\LEARN_C\PROJET 5\TABLE XOR\DEBUG\TABLE XOR.OBJ
C:\USERS\ADMIN\DOCUMENTS\DEV\LEARN\LEARN_C\PROJET 5\DEBUG\TABLE XOR.EXE
C:\USERS\ADMIN\DOCUMENTS\DEV\LEARN\LEARN_C\PROJET 5\DEBUG\TABLE XOR.ILK
C:\USERS\ADMIN\DOCUMENTS\DEV\LEARN\LEARN_C\PROJET 5\DEBUG\TABLE XOR.PDB
