^C:\USERS\ADMIN\DOCUMENTS\DEV\LEARN\LEARN_C\PROJET 1\PROJET 1\DEBUG\PCH.OBJ|C:\USERS\ADMIN\DOCUMENTS\DEV\LEARN\LEARN_C\PROJET 1\PROJET 1\DEBUG\PROJET 1.OBJ
C:\USERS\ADMIN\DOCUMENTS\DEV\LEARN\LEARN_C\PROJET 1\PROJET 1\DEBUG\PROJET 1.EXE
C:\USERS\ADMIN\DOCUMENTS\DEV\LEARN\LEARN_C\PROJET 1\PROJET 1\DEBUG\PROJET 1.ILK
C:\USERS\ADMIN\DOCUMENTS\DEV\LEARN\LEARN_C\PROJET 1\PROJET 1\DEBUG\PROJET 1.PDB
