^C:\USERS\ADMIN\DOCUMENTS\DEV\LEARN\LEARN_C\PROJET 15\COMPTER VALEUR IDENTIQUE TABLEAU\PCH.CPP
C:\USERS\ADMIN\DOCUMENTS\DEV\LEARN\LEARN_C\PROJET 15\COMPTER VALEUR IDENTIQUE TABLEAU\DEBUG\COMPTER VALEUR IDENTIQUE TABLEAU.PCH
C:\USERS\ADMIN\DOCUMENTS\DEV\LEARN\LEARN_C\PROJET 15\COMPTER VALEUR IDENTIQUE TABLEAU\DEBUG\VC141.PDB
C:\USERS\ADMIN\DOCUMENTS\DEV\LEARN\LEARN_C\PROJET 15\COMPTER VALEUR IDENTIQUE TABLEAU\DEBUG\VC141.IDB
C:\USERS\ADMIN\DOCUMENTS\DEV\LEARN\LEARN_C\PROJET 15\COMPTER VALEUR IDENTIQUE TABLEAU\DEBUG\PCH.OBJ
^C:\USERS\ADMIN\DOCUMENTS\DEV\LEARN\LEARN_C\PROJET 15\COMPTER VALEUR IDENTIQUE TABLEAU\COMPTER VALEUR IDENTIQUE TABLEAU.CPP
C:\USERS\ADMIN\DOCUMENTS\DEV\LEARN\LEARN_C\PROJET 15\COMPTER VALEUR IDENTIQUE TABLEAU\DEBUG\VC141.PDB
C:\USERS\ADMIN\DOCUMENTS\DEV\LEARN\LEARN_C\PROJET 15\COMPTER VALEUR IDENTIQUE TABLEAU\DEBUG\VC141.IDB
C:\USERS\ADMIN\DOCUMENTS\DEV\LEARN\LEARN_C\PROJET 15\COMPTER VALEUR IDENTIQUE TABLEAU\DEBUG\COMPTER VALEUR IDENTIQUE TABLEAU.OBJ
